{
	"info": {
		"_postman_id": "6ce97e80-95a5-403e-908e-8e944344de13",
		"name": "Simple Book API",
		"schema": "https://schema.getpostman.com/json/collection/v2.1.0/collection.json",
		"_exporter_id": "15570062"
	},
	"item": [
		{
			"name": "API Status",
			"event": [
				{
					"listen": "test",
					"script": {
						"exec": [
							"pm.test(\"Status code is 200\", () => {\r",
							"    pm.response.to.have.status(200);\r",
							"});\r",
							"\r",
							"const response = pm.response.json();\r",
							"\r",
							"console.log(response.status);\r",
							"console.log(response['status']);\r",
							"\r",
							"pm.test(\"Status should be OK\", ()=>{\r",
							"    pm.expect(response.status).to.eql(\"OK\");\r",
							"}); \r",
							"\r",
							"postman.setNextRequest(\"List of books\");"
						],
						"type": "text/javascript"
					}
				}
			],
			"protocolProfileBehavior": {
				"disableBodyPruning": true
			},
			"request": {
				"method": "GET",
				"header": [],
				"body": {
					"mode": "raw",
					"raw": "",
					"options": {
						"raw": {
							"language": "json"
						}
					}
				},
				"url": {
					"raw": "{{baseUrl}}/status",
					"host": [
						"{{baseUrl}}"
					],
					"path": [
						"status"
					]
				}
			},
			"response": []
		},
		{
			"name": "List of books",
			"event": [
				{
					"listen": "test",
					"script": {
						"exec": [
							"pm.test(\"Status code is 200\", () => {\r",
							"    pm.response.to.have.status(200);\r",
							"});\r",
							"\r",
							"const response = pm.response.json();\r",
							"\r",
							"const nonFictionBook = response.filter((book)=>book.available=== true);\r",
							"// console.log(nonFictionBook[0]);\r",
							"\r",
							"const book = nonFictionBook[0];\r",
							"\r",
							"if (book) {\r",
							"    pm.globals.set(\"bookId\", book.id);\r",
							"}\r",
							"\r",
							"pm.test(\"Book found\", ()=>{ \r",
							"    pm.expect(book).to.be.an('object');\r",
							"    pm.expect(book.available).to.be.true;\r",
							"    pm.expect(book.available).to.eql(true);\r",
							"    pm.expect(book.type).to.eql('non-fiction');\r",
							"})\r",
							"\r",
							"// pm.globals.set(\"bookId\", book.id);"
						],
						"type": "text/javascript"
					}
				}
			],
			"request": {
				"method": "GET",
				"header": [],
				"url": {
					"raw": "{{baseUrl}}/books?type=non-fiction",
					"host": [
						"{{baseUrl}}"
					],
					"path": [
						"books"
					],
					"query": [
						{
							"key": "type",
							"value": "non-fiction"
						},
						{
							"key": "limit",
							"value": "1",
							"disabled": true
						}
					]
				}
			},
			"response": []
		},
		{
			"name": "Get single book",
			"event": [
				{
					"listen": "test",
					"script": {
						"exec": [
							"pm.test(\"Status code is 200\", () => {\r",
							"    pm.response.to.have.status(200);\r",
							"});\r",
							"\r",
							"const response = pm.response.json();\r",
							"\r",
							"pm.test(\"Is in stock\", () => {\r",
							"    pm.expect(response['current-stock']).to.be.above(0);\r",
							"});"
						],
						"type": "text/javascript"
					}
				}
			],
			"request": {
				"method": "GET",
				"header": [],
				"url": {
					"raw": "{{baseUrl}}/books/:bookid",
					"host": [
						"{{baseUrl}}"
					],
					"path": [
						"books",
						":bookid"
					],
					"variable": [
						{
							"key": "bookid",
							"value": "{{bookId}}"
						}
					]
				}
			},
			"response": []
		},
		{
			"name": "Order books",
			"event": [
				{
					"listen": "test",
					"script": {
						"exec": [
							"pm.test(\"Status code is 201\", () => {\r",
							"    pm.response.to.have.status(201);\r",
							"});\r",
							"\r",
							"const response = pm.response.json();\r",
							"\r",
							"pm.globals.set(\"orderid\", response.orderId);"
						],
						"type": "text/javascript"
					}
				}
			],
			"request": {
				"auth": {
					"type": "bearer",
					"bearer": [
						{
							"key": "token",
							"value": "{{accessToken}}",
							"type": "string"
						}
					]
				},
				"method": "POST",
				"header": [],
				"body": {
					"mode": "raw",
					"raw": "{\r\n  \"bookId\": {{bookId}},\r\n  \"customerName\": \"{{$randomFullName}}\"\r\n}",
					"options": {
						"raw": {
							"language": "json"
						}
					}
				},
				"url": {
					"raw": "{{baseUrl}}/orders",
					"host": [
						"{{baseUrl}}"
					],
					"path": [
						"orders"
					]
				}
			},
			"response": []
		},
		{
			"name": "Get all book orders",
			"event": [
				{
					"listen": "test",
					"script": {
						"exec": [
							"pm.test(\"Status code is 200\", () => {\r",
							"    pm.response.to.have.status(200);\r",
							"});"
						],
						"type": "text/javascript"
					}
				}
			],
			"protocolProfileBehavior": {
				"disableBodyPruning": true
			},
			"request": {
				"auth": {
					"type": "bearer",
					"bearer": [
						{
							"key": "token",
							"value": "{{accessToken}}",
							"type": "string"
						}
					]
				},
				"method": "GET",
				"header": [],
				"body": {
					"mode": "raw",
					"raw": "{\r\n  \"bookId\": 1,\r\n  \"customerName\": \"{{$randomFullName}}\"\r\n}",
					"options": {
						"raw": {
							"language": "json"
						}
					}
				},
				"url": {
					"raw": "{{baseUrl}}/orders",
					"host": [
						"{{baseUrl}}"
					],
					"path": [
						"orders"
					]
				}
			},
			"response": []
		},
		{
			"name": "Get an order",
			"event": [
				{
					"listen": "test",
					"script": {
						"exec": [
							"pm.test(\"Status code is 200\", () => {\r",
							"    pm.response.to.have.status(200);\r",
							"});"
						],
						"type": "text/javascript"
					}
				}
			],
			"protocolProfileBehavior": {
				"disableBodyPruning": true
			},
			"request": {
				"auth": {
					"type": "bearer",
					"bearer": [
						{
							"key": "token",
							"value": "{{accessToken}}",
							"type": "string"
						}
					]
				},
				"method": "GET",
				"header": [],
				"body": {
					"mode": "raw",
					"raw": "{\r\n  \"bookId\": 1,\r\n  \"customerName\": \"{{$randomFullName}}\"\r\n}",
					"options": {
						"raw": {
							"language": "json"
						}
					}
				},
				"url": {
					"raw": "{{baseUrl}}/orders/:orderid",
					"host": [
						"{{baseUrl}}"
					],
					"path": [
						"orders",
						":orderid"
					],
					"variable": [
						{
							"key": "orderid",
							"value": "{{orderid}}"
						}
					]
				}
			},
			"response": []
		},
		{
			"name": "Update an order",
			"event": [
				{
					"listen": "test",
					"script": {
						"exec": [
							"pm.test(\"Status code is 204\", () => {\r",
							"    pm.response.to.have.status(204);\r",
							"});"
						],
						"type": "text/javascript"
					}
				}
			],
			"request": {
				"auth": {
					"type": "bearer",
					"bearer": [
						{
							"key": "token",
							"value": "{{accessToken}}",
							"type": "string"
						}
					]
				},
				"method": "PATCH",
				"header": [],
				"body": {
					"mode": "raw",
					"raw": "{\r\n  \"customerName\": \"John {{$randomLastName}}\"\r\n}",
					"options": {
						"raw": {
							"language": "json"
						}
					}
				},
				"url": {
					"raw": "{{baseUrl}}/orders/:orderid",
					"host": [
						"{{baseUrl}}"
					],
					"path": [
						"orders",
						":orderid"
					],
					"variable": [
						{
							"key": "orderid",
							"value": "{{orderid}}"
						}
					]
				}
			},
			"response": []
		},
		{
			"name": "Delete an order",
			"event": [
				{
					"listen": "test",
					"script": {
						"exec": [
							"pm.test(\"Status code is 204\", () => {\r",
							"    pm.response.to.have.status(204);\r",
							"});\r",
							"\r",
							"postman.setNextRequest(null);"
						],
						"type": "text/javascript"
					}
				}
			],
			"request": {
				"auth": {
					"type": "bearer",
					"bearer": [
						{
							"key": "token",
							"value": "{{accessToken}}",
							"type": "string"
						}
					]
				},
				"method": "DELETE",
				"header": [],
				"body": {
					"mode": "raw",
					"raw": "",
					"options": {
						"raw": {
							"language": "json"
						}
					}
				},
				"url": {
					"raw": "{{baseUrl}}/orders/:orderid",
					"host": [
						"{{baseUrl}}"
					],
					"path": [
						"orders",
						":orderid"
					],
					"variable": [
						{
							"key": "orderid",
							"value": "{{orderid}}"
						}
					]
				}
			},
			"response": []
		},
		{
			"name": "Register API Client",
			"event": [
				{
					"listen": "test",
					"script": {
						"exec": [
							"pm.test(\"Status code is 201\", () => {\r",
							"    pm.response.to.have.status(201);\r",
							"});"
						],
						"type": "text/javascript"
					}
				}
			],
			"request": {
				"method": "POST",
				"header": [],
				"body": {
					"mode": "raw",
					"raw": "{\r\n   \"clientName\": \"Postman303\",\r\n   \"clientEmail\": \"valentin303@example.com\"\r\n}",
					"options": {
						"raw": {
							"language": "json"
						}
					}
				},
				"url": {
					"raw": "{{baseUrl}}/api-clients",
					"host": [
						"{{baseUrl}}"
					],
					"path": [
						"api-clients"
					]
				}
			},
			"response": []
		}
	],
	"event": [
		{
			"listen": "prerequest",
			"script": {
				"type": "text/javascript",
				"exec": [
					""
				]
			}
		},
		{
			"listen": "test",
			"script": {
				"type": "text/javascript",
				"exec": [
					""
				]
			}
		}
	],
	"variable": [
		{
			"key": "baseUrl",
			"value": "https://simple-books-api.glitch.me"
		},
		{
			"key": "accessToken",
			"value": "7f5c2d669b35754975e04b2fa471f60fd6075436313fee1c31e030c4073e3ccc",
			"type": "string"
		}
	]
}